Division,WeightClassKg,Place,Name,Team,BodyweightKg,Best3SquatKg,Best3BenchKg,Best3DeadliftKg,TotalKg,Equipment,Event,Sex
Boys,55.79,1,Justin Rocha,Friona,51.94,136.08,70.31,142.88,349.27,Single-ply,SBD,M
Boys,51.71,2,Jeremiah Ramirez,Levelland,46.9,124.74,61.23,149.69,335.66,Single-ply,SBD,M
Boys,51.71,3,Jarred Curtis,Post,50.71,124.74,70.31,129.27,324.32,Single-ply,SBD,M
Boys,51.71,4,Nick Acosta,Seminole,51.39,111.13,68.04,117.93,297.1,Single-ply,SBD,M
Boys,51.71,5,Ignacio Romero,Plainview,43.91,113.4,54.43,106.59,274.42,Single-ply,SBD,M
Boys,55.79,6,Sergio Romero,Childress,51.8,99.79,56.7,108.86,265.35,Single-ply,SBD,M
Boys,51.71,7,Josh Chavarria,Floydada,50.35,106.59,54.43,102.06,263.08,Single-ply,SBD,M
Boys,51.71,8,Xavier Estrada,Andrews,51.17,92.99,56.7,104.33,254.01,Single-ply,SBD,M
Boys,51.71,9,Daniel Denton,Wolfforth Frenship,44.5,70.31,43.09,77.11,190.51,Single-ply,SBD,M
Boys,55.79,1,Justin Tovar,Abernathy,54.52,154.22,95.25,133.81,383.29,Single-ply,SBD,M
Boys,59.87,2,Salvador Antillon,Seminole,55.88,145.15,77.11,149.69,371.95,Single-ply,SBD,M
Boys,55.79,3,Nick Espinoza,Denver City,55.43,136.08,86.18,142.88,365.14,Single-ply,SBD,M
Boys,55.79,4,Elijah Zambrano,Plainview,55.79,154.22,70.31,140.61,365.14,Single-ply,SBD,M
Boys,55.79,5,Juan Macias,Friona,55.38,133.81,74.84,142.88,351.53,Single-ply,SBD,M
Boys,55.79,6,Matthew Gallegos,Plainview,55.07,117.93,68.04,131.54,317.51,Single-ply,SBD,M
Boys,55.79,7,Alfonzo Mendoza,Floydada,55.7,111.13,65.77,133.81,310.71,Single-ply,SBD,M
Boys,55.79,8,Efren Miranda,Levelland,53.52,113.4,65.77,127.01,306.17,Single-ply,SBD,M
Boys,55.79,9,Austin Dominguez,Abernathy,55.29,102.06,70.31,111.13,283.5,Single-ply,SBD,M
Boys,55.79,DQ,Sean Romines,Denver City,54.7,,,,,Single-ply,SBD,M
Boys,59.87,1,Cambry Gilbert,Post,59.15,174.63,90.72,174.63,439.98,Single-ply,SBD,M
Boys,59.87,2,Sawyer Jenkins,Seminole,59.83,158.76,97.52,163.29,419.57,Single-ply,SBD,M
Boys,67.13,3,Michael Condarco,Seminole,60.01,149.69,86.18,181.44,417.3,Single-ply,SBD,M
Boys,59.87,4,Esdras Rodriguez,Friona,59.15,154.22,74.84,158.76,387.82,Single-ply,SBD,M
Boys,59.87,5,Kenneth Neskorik,Childress,58.38,145.15,81.65,138.35,365.14,Single-ply,SBD,M
Boys,59.87,6,Zachary Salazar,Lamesa,56.2,136.08,86.18,140.61,362.87,Single-ply,SBD,M
Boys,59.87,7,Edgar Sanchez,Dimmitt,59.78,129.27,90.72,133.81,353.8,Single-ply,SBD,M
Boys,59.87,8,Charles Sinclair,Childress,59.24,122.47,86.18,138.35,347,Single-ply,SBD,M
Boys,59.87,9,Antonio Alvarado,Levelland,57.38,124.74,72.57,140.61,337.93,Single-ply,SBD,M
Boys,67.13,10,Emilio Miranda,Levelland,60.1,136.08,61.23,127.01,324.32,Single-ply,SBD,M
Boys,59.87,11,Dalton Jenkins,Plainview,59.38,136.08,58.97,124.74,319.78,Single-ply,SBD,M
Boys,59.87,12,Kobe Young,Wolfforth Frenship,58.51,120.2,70.31,124.74,315.25,Single-ply,SBD,M
Boys,59.87,13,Steven Anna,Plains,59.19,90.72,70.31,122.47,283.5,Single-ply,SBD,M
Boys,59.87,14,Will Wilkins,Plains,59.6,102.06,63.5,113.4,278.96,Single-ply,SBD,M
Boys,67.13,15,Seth Salinas,Olton,60.1,90.72,63.5,124.74,278.96,Single-ply,SBD,M
Boys,59.87,16,Jose Raul Ornelas,Levelland,56.25,86.18,58.97,108.86,254.01,Single-ply,SBD,M
Boys,59.87,17,Dustin Beverage,Plainview,58.01,92.99,47.63,108.86,249.48,Single-ply,SBD,M
Boys,59.87,18,Campbell Cowan,Lamesa,59.6,97.52,47.63,102.06,247.21,Single-ply,SBD,M
Boys,67.13,19,Chase Raney,Lamesa,60.01,88.45,49.9,99.79,238.14,Single-ply,SBD,M
Boys,59.87,20,Grant Smith,Levelland,56.38,86.18,43.09,79.38,208.65,Single-ply,SBD,M
Boys,59.87,DQ,Todd Swadley,Denver City,59.19,,,,,Single-ply,SBD,M
Boys,67.13,1,Jordan Ruiz,Seagraves,66.32,244.94,149.69,254.01,648.64,Single-ply,SBD,M
Boys,67.13,2,Andrew Alvidrez,Seminole,65.77,213.19,131.54,217.72,562.45,Single-ply,SBD,M
Boys,67.13,3,Adan Ramirez,Friona,67.13,226.8,113.4,210.92,551.11,Single-ply,SBD,M
Boys,67.13,4,Elliot Hanna,Levelland,66.22,188.24,117.93,195.04,501.22,Single-ply,SBD,M
Boys,67.13,5,Eli Rodriguez,Seagraves,66.36,192.78,102.06,192.78,487.61,Single-ply,SBD,M
Boys,74.84,6,Alex Valdez,Andrews,67.36,158.76,99.79,199.58,458.13,Single-ply,SBD,M
Boys,67.13,7,Reece Harper,Sudan,63.55,158.76,90.72,199.58,449.06,Single-ply,SBD,M
Boys,67.13,8,Adrian Gonzalez,Floydada,65.91,174.63,90.72,176.9,442.25,Single-ply,SBD,M
Boys,67.13,9,Cristian Paez,Muleshoe,62.55,149.69,83.91,167.83,401.43,Single-ply,SBD,M
Boys,67.13,10,Alejo Rodriguez,Post,65.5,149.69,83.91,161.03,394.63,Single-ply,SBD,M
Boys,67.13,11,Isaah Jones,Post,66.86,147.42,90.72,154.22,392.36,Single-ply,SBD,M
Boys,67.13,12,Brian Amador,Lamesa,60.65,136.08,99.79,142.88,378.75,Single-ply,SBD,M
Boys,67.13,13,Blake Boren,Post,67.13,142.88,92.99,142.88,378.75,Single-ply,SBD,M
Boys,67.13,14,Aaron James,Childress,65.86,136.08,86.18,138.35,360.61,Single-ply,SBD,M
Boys,74.84,15,Kolton Kissick,Seminole,67.36,142.88,79.38,136.08,358.34,Single-ply,SBD,M
Boys,67.13,16,Sammy Soto,Post,65.14,129.27,83.91,142.88,356.07,Single-ply,SBD,M
Boys,67.13,17,Bo Lott,Childress,65.32,131.54,90.72,131.54,353.8,Single-ply,SBD,M
Boys,67.13,18,Joseph Partin,Plainview,62.05,129.27,68.04,142.88,340.19,Single-ply,SBD,M
Boys,67.13,19,Raul Trevino,Muleshoe,64.41,122.47,68.04,147.42,337.93,Single-ply,SBD,M
Boys,67.13,20,Alex Machado,Dimmitt,61.42,115.67,81.65,138.35,335.66,Single-ply,SBD,M
Boys,74.84,21,Quince Workman,Wolfforth Frenship,67.27,97.52,72.57,158.76,328.85,Single-ply,SBD,M
Boys,67.13,22,Damon Jones,Olton,67.09,97.52,70.31,133.81,301.64,Single-ply,SBD,M
Boys,67.13,23,Fermin Medina,Dimmitt,67,113.4,68.04,106.59,288.03,Single-ply,SBD,M
Boys,74.84,24,Trevor Lewis,Plains,67.22,88.45,65.77,133.81,288.03,Single-ply,SBD,M
Boys,67.13,25,Trevor Drennan,Whiteface,62.05,108.86,65.77,111.13,285.76,Single-ply,SBD,M
Boys,67.13,26,Peyton McWhirter,Plains,64.14,99.79,54.43,117.93,272.16,Single-ply,SBD,M
Boys,67.13,27,Trey Lopez,Childress,61.19,106.59,54.43,108.86,269.89,Single-ply,SBD,M
Boys,67.13,28,Jaime Lizama,Childress,66.68,104.33,56.7,106.59,267.62,Single-ply,SBD,M
Boys,67.13,29,Eric Escalante,Denver City,64.41,79.38,72.57,90.72,242.67,Single-ply,SBD,M
Boys,67.13,30,Tanner Reynolds,Shamrock,66.32,86.18,65.77,83.91,235.87,Single-ply,SBD,M
Boys,67.13,DQ,Garett Stille,Andrews,66.04,136.08,,,,Single-ply,SBD,M
Boys,82.1,1,Marcus Ruff,Whiteface,74.89,197.31,113.4,226.8,537.51,Single-ply,SBD,M
Boys,74.84,2,Jd Lopez,Childress,72.26,176.9,127.01,188.24,492.15,Single-ply,SBD,M
Boys,74.84,3,Steven Vallejo,Plainview,73.53,181.44,88.45,204.12,474,Single-ply,SBD,M
Boys,74.84,4,Barry Johnson,Sudan,67.81,158.76,115.67,197.31,471.74,Single-ply,SBD,M
Boys,74.84,5,Braden Bessire,Muleshoe,70.76,174.63,88.45,181.44,444.52,Single-ply,SBD,M
Boys,74.84,6,Jake Samaneigo,Lamesa,71.53,165.56,106.59,170.1,442.25,Single-ply,SBD,M
Boys,74.84,7,Fabian Honesto,Whiteface,71.8,174.63,77.11,181.44,433.18,Single-ply,SBD,M
Boys,74.84,8,Logan Gersbach,Seminole,69.72,136.08,108.86,181.44,426.38,Single-ply,SBD,M
Boys,74.84,9,Paul Perez #3,Levelland,73.21,174.63,97.52,154.22,426.38,Single-ply,SBD,M
Boys,74.84,10,Justin Goodwin,Childress,74.12,165.56,102.06,158.76,426.38,Single-ply,SBD,M
Boys,74.84,11,Dylan Davidson,Childress,69.08,151.95,86.18,170.1,408.23,Single-ply,SBD,M
Boys,74.84,12,Manuel Grado,Friona,74.84,140.61,90.72,145.15,376.48,Single-ply,SBD,M
Boys,74.84,13,Aj Reed,Post,69.76,138.35,83.91,151.95,374.21,Single-ply,SBD,M
Boys,74.84,14,Jose Rocha,Friona,72.89,136.08,88.45,142.88,367.41,Single-ply,SBD,M
Boys,74.84,15,Tristan Fannon,Post,74.53,115.67,88.45,163.29,367.41,Single-ply,SBD,M
Boys,74.84,16,Dillon Hibbitts,Seagraves,71.94,127.01,68.04,154.22,349.27,Single-ply,SBD,M
Boys,74.84,17,Isaac Summerlin,Friona,73.53,122.47,58.97,147.42,328.85,Single-ply,SBD,M
Boys,74.84,18,Austin Prater,Childress,72.17,113.4,65.77,127.01,306.17,Single-ply,SBD,M
Boys,74.84,19,Eric Alcozar,Plainview,71.08,106.59,72.57,124.74,303.91,Single-ply,SBD,M
Boys,74.84,20,Thomas Adams #3,Childress,69.99,117.93,77.11,97.52,292.57,Single-ply,SBD,M
Boys,74.84,21,Blaze Smith,Post,71.76,115.67,56.7,115.67,288.03,Single-ply,SBD,M
Boys,74.84,22,Pedro Armendariz,Plainview,74.71,122.47,61.23,104.33,288.03,Single-ply,SBD,M
Boys,74.84,23,Aaron Cardova,Denver City,67.59,81.65,65.77,120.2,267.62,Single-ply,SBD,M
Boys,82.1,DQ,Joe Macias,Andrews,74.98,167.83,,,,Single-ply,SBD,M
Boys,74.84,DQ,Joaquein Ramirez,Seminole,70.72,,,,,Single-ply,SBD,M
Boys,74.84,DQ,Aaron Hunt,Shamrock,70.49,133.81,,,,Single-ply,SBD,M
Boys,89.81,1,Federico Carmona,Floydada,82.33,217.72,133.81,229.06,580.6,Single-ply,SBD,M
Boys,82.1,2,Michael Garcia #9,Friona,80.1,210.92,127.01,188.24,526.17,Single-ply,SBD,M
Boys,82.1,3,Richard Valenzuela,Andrews,76.38,176.9,122.47,185.97,485.34,Single-ply,SBD,M
Boys,82.1,4,Alexander Guerrero,Childress,79.42,172.37,108.86,199.58,480.81,Single-ply,SBD,M
Boys,82.1,5,Jose Cornejo,Andrews,77.25,181.44,104.33,192.78,478.54,Single-ply,SBD,M
Boys,82.1,6,Bryan Smith #5,Post,81.24,170.1,111.13,183.7,464.93,Single-ply,SBD,M
Boys,82.1,7,Ramon Juarez,Seminole,80.29,174.63,104.33,183.7,462.66,Single-ply,SBD,M
Boys,82.1,8,Eduardo Hernandez,Denver City,78.24,181.44,106.59,167.83,455.86,Single-ply,SBD,M
Boys,82.1,9,Carlos Hinojosa,Lamesa,77.29,176.9,90.72,170.1,437.72,Single-ply,SBD,M
Boys,82.1,10,Jesus Davila,Whiteface,81.37,147.42,86.18,188.24,421.84,Single-ply,SBD,M
Boys,82.1,11,Jorge Martinez,Muleshoe,77.11,142.88,79.38,172.37,394.63,Single-ply,SBD,M
Boys,82.1,12,Jeremiah Fuentes,Abernathy,81.37,108.86,88.45,181.44,378.75,Single-ply,SBD,M
Boys,82.1,13,Jaime Cigarroa,Friona,79.38,154.22,79.38,138.35,371.95,Single-ply,SBD,M
Boys,82.1,14,Fernando Vasquez,Denver City,76.57,113.4,90.72,154.22,358.34,Single-ply,SBD,M
Boys,82.1,15,Brandon Pereyra,Plains,76.75,122.47,83.91,145.15,351.53,Single-ply,SBD,M
Boys,82.1,16,Carson Turner,Floydada,80.88,131.54,86.18,133.81,351.53,Single-ply,SBD,M
Boys,82.1,17,Christopher Chavez #3,Friona,78.06,136.08,65.77,133.81,335.66,Single-ply,SBD,M
Boys,89.81,18,Coleman Lott,Childress,82.15,106.59,95.25,113.4,315.25,Single-ply,SBD,M
Boys,82.1,DQ,Rene Rodriguez,Friona,75.57,151.95,,,,Single-ply,SBD,M
Boys,82.1,DQ,Cole Gatzki,Plains,77.66,,,,,Single-ply,SBD,M
Boys,89.81,1,Aaron Chavarria,Floydada,87.09,272.16,161.03,238.14,671.32,Single-ply,SBD,M
Boys,89.81,2,Nick Anna,Plains,88.09,201.85,120.2,222.26,544.31,Single-ply,SBD,M
Boys,89.81,3,Chase Galyean,Childress,88.36,204.12,104.33,188.24,496.68,Single-ply,SBD,M
Boys,89.81,4,Abel Palacios,Friona,83.64,167.83,113.4,213.19,494.42,Single-ply,SBD,M
Boys,89.81,5,Bryson Kitchens,Abernathy,83.82,147.42,92.99,158.76,399.16,Single-ply,SBD,M
Boys,89.81,6,Jordan Hernandez,Wolfforth Frenship,86.64,129.27,79.38,140.61,349.27,Single-ply,SBD,M
Boys,89.81,7,Ethan Moseley,Wolfforth Frenship,84.46,129.27,74.84,138.35,342.46,Single-ply,SBD,M
Boys,89.81,8,Leo Montoya,Whiteface,83.64,111.13,72.57,136.08,319.78,Single-ply,SBD,M
Boys,89.81,9,Gabriel García,Plainview,82.69,120.2,65.77,127.01,312.98,Single-ply,SBD,M
Boys,89.81,10,Marcos Hernandez,Lamesa,87.63,106.59,72.57,122.47,301.64,Single-ply,SBD,M
Boys,89.81,11,Hector Pando,Plains,84.37,83.91,56.7,124.74,265.35,Single-ply,SBD,M
Boys,89.81,12,Cesar Dominguez,Denver City,84.64,81.65,61.23,113.4,256.28,Single-ply,SBD,M
Boys,99.79,1,Azel Alvidrez,Andrews,95.48,217.72,147.42,242.67,607.81,Single-ply,SBD,M
Boys,99.79,2,Roy Abananu,Plainview,94.89,192.78,113.4,197.31,503.49,Single-ply,SBD,M
Boys,109.77,3,Israel Rosalez,Seagraves,100.02,192.78,133.81,172.37,498.95,Single-ply,SBD,M
Boys,99.79,4,Micah Melton,Andrews,98.11,181.44,102.06,190.51,474,Single-ply,SBD,M
Boys,99.79,5,Tristan Hernandez,Dimmitt,94.08,172.37,106.59,185.97,464.93,Single-ply,SBD,M
Boys,99.79,6,Carlos Martinez #21,Muleshoe,98.38,185.97,92.99,185.97,464.93,Single-ply,SBD,M
Boys,99.79,7,Christian Rodriguez #8,Wolfforth Frenship,93.17,165.56,92.99,183.7,442.25,Single-ply,SBD,M
Boys,99.79,8,Duston Vargas,Andrews,92.71,142.88,102.06,174.63,419.57,Single-ply,SBD,M
Boys,99.79,9,Jacob Piel,Wolfforth Frenship,96.03,136.08,83.91,158.76,378.75,Single-ply,SBD,M
Boys,99.79,10,Alberto Castillo,Whiteface,95.35,136.08,72.57,147.42,356.07,Single-ply,SBD,M
Boys,99.79,DQ,Rhett Buckley,Childress,93.26,145.15,,,,Single-ply,SBD,M
Boys,109.77,DQ,Rolando Gutierrez,Seagraves,100.02,,,,,Single-ply,SBD,M
Boys,99.79,DQ,Lj Rodriguez,Dimmitt,95.98,163.29,108.86,,,Single-ply,SBD,M
Boys,109.77,1,Abayomi Salinas,Friona,109.77,240.4,124.74,229.06,594.21,Single-ply,SBD,M
Boys,109.77,2,Matthew Cardenas,Wolfforth Frenship,104.55,224.53,136.08,195.04,555.65,Single-ply,SBD,M
Boys,109.77,3,Scott Martin,Dimmitt,106.37,215.46,111.13,217.72,544.31,Single-ply,SBD,M
Boys,109.77,4,Alex King,Levelland,101.92,206.38,113.4,210.92,530.7,Single-ply,SBD,M
Boys,109.77,5,Tj Basquez,Post,102.65,201.85,142.88,181.44,526.17,Single-ply,SBD,M
Boys,109.77,6,Juan Samarron,Friona,100.88,183.7,120.2,195.04,498.95,Single-ply,SBD,M
Boys,109.77,7,David Ramirez,Plains,105.87,204.12,115.67,165.56,485.34,Single-ply,SBD,M
Boys,109.77,8,Luis Valenzuela,Andrews,105.69,174.63,108.86,197.31,480.81,Single-ply,SBD,M
Boys,109.77,9,Dillon DeLeon,Lockney,102.74,188.24,120.2,158.76,467.2,Single-ply,SBD,M
Boys,109.77,10,Dahel Davila,Whiteface,105.14,181.44,106.59,174.63,462.66,Single-ply,SBD,M
Boys,109.77,11,Israel Vasquez,Denver City,105.91,197.31,102.06,163.29,462.66,Single-ply,SBD,M
Boys,109.77,DQ,Esteban López,Andrews,101.51,174.63,122.47,,,Single-ply,SBD,M
Boys,109.77,DQ,Bret Sarli,Seminole,109.04,,,,,Single-ply,SBD,M
Boys,124.74,1,Celso Guerrero,Childress,122.38,249.48,183.7,242.67,675.85,Single-ply,SBD,M
Boys,124.74,2,David Rodriguez,Muleshoe,112.49,204.12,136.08,204.12,544.31,Single-ply,SBD,M
Boys,124.74,3,Mark Munoz,Childress,117.8,208.65,140.61,190.51,539.77,Single-ply,SBD,M
Boys,124.74,4,Marquise Nelson,Wolfforth Frenship,123.06,217.72,111.13,208.65,537.51,Single-ply,SBD,M
Boys,124.74,5,Jordan Russell,Muleshoe,118.34,163.29,99.79,190.51,453.59,Single-ply,SBD,M
Boys,124.74,6,Arturo Ortega,Denver City,114.94,156.49,102.06,192.78,451.32,Single-ply,SBD,M
Boys,124.74,7,Jacob Pace,Shamrock,115.76,170.1,88.45,138.35,396.89,Single-ply,SBD,M
Boys,124.74,8,Colton Smith #6,Post,114.49,111.13,102.06,158.76,371.95,Single-ply,SBD,M
Boys,124.74+,1,Edgar Guerrero,Friona,131.13,328.85,170.1,299.37,798.32,Single-ply,SBD,M
Boys,124.74+,2,Vincent Mendoza,Wolfforth Frenship,125.69,235.87,111.13,226.8,573.79,Single-ply,SBD,M
Boys,124.74+,3,Santos Jackson,Dimmitt,145.47,199.58,117.93,204.12,521.63,Single-ply,SBD,M
Boys,124.74+,4,Brandon Rowand,Levelland,149.23,181.44,129.27,181.44,492.15,Single-ply,SBD,M
Boys,124.74+,5,Alexander Dimba,Wolfforth Frenship,216.32,192.78,111.13,158.76,462.66,Single-ply,SBD,M
Boys,124.74+,6,Cody Amador,Lockney,180.21,161.03,138.35,147.42,446.79,Single-ply,SBD,M
Boys,124.74+,DQ,Rudy Jackson,Dimmitt,127.1,208.65,117.93,,,Single-ply,SBD,M
